\BOOKMARK [1][-]{section.1}{Goal and Motivation}{}% 1
\BOOKMARK [1][-]{section.2}{Approach}{}% 2
\BOOKMARK [2][-]{subsection.2.1}{Best Practice Repository}{section.2}% 3
\BOOKMARK [2][-]{subsection.2.2}{Graphical User Interface}{section.2}% 4
\BOOKMARK [1][-]{section.3}{Implementation}{}% 5
\BOOKMARK [1][-]{section.4}{Organization}{}% 6
