\relax 
\providecommand\hyper@newdestlabel[2]{}
\providecommand\HyperFirstAtBeginDocument{\AtBeginDocument}
\HyperFirstAtBeginDocument{\ifx\hyper@anchor\@undefined
\global\let\oldcontentsline\contentsline
\gdef\contentsline#1#2#3#4{\oldcontentsline{#1}{#2}{#3}}
\global\let\oldnewlabel\newlabel
\gdef\newlabel#1#2{\newlabelxx{#1}#2}
\gdef\newlabelxx#1#2#3#4#5#6{\oldnewlabel{#1}{{#2}{#3}}}
\AtEndDocument{\ifx\hyper@anchor\@undefined
\let\contentsline\oldcontentsline
\let\newlabel\oldnewlabel
\fi}
\fi}
\global\let\hyper@last\relax 
\gdef\HyperFirstAtBeginDocument#1{#1}
\providecommand\HyField@AuxAddToFields[1]{}
\providecommand\HyField@AuxAddToCoFields[2]{}
\citation{szabo_score_????}
\citation{jalote_concise_2008}
\citation{martin_clean_2009}
\citation{mccabe_complexity_1976}
\citation{coghlan_pep_????}
\citation{ludewig_software_2013}
\citation{humphrey_discipline_1995}
\citation{jalote_concise_2008}
\citation{shneiderman_designing_1987}
\citation{laskaris_30_2014}
\citation{codecadamy_codecadamy_????}
\citation{rostagno_ninja-ide_2013}
\@writefile{toc}{\contentsline {section}{\numberline {1}Goal and Motivation}{1}{section.1}}
\@writefile{toc}{\contentsline {section}{\numberline {2}Approach}{1}{section.2}}
\@writefile{toc}{\contentsline {subsection}{\numberline {2.1}Best Practice Repository}{1}{subsection.2.1}}
\@writefile{toc}{\contentsline {subsection}{\numberline {2.2}Graphical User Interface}{1}{subsection.2.2}}
\@writefile{toc}{\contentsline {section}{\numberline {3}Implementation}{1}{section.3}}
\citation{cordasco_flake8_????}
\citation{coghlan_pep_????}
\citation{atlassian_bitbucket_????}
\citation{tesch_openproject_2015}
\citation{stahl_sophia_spreadsheet_????}
\citation{stillman_zotero_????}
\bibstyle{IEEEtran}
\bibdata{./Coco_Lib/Coco_Lib}
\bibcite{szabo_score_????}{1}
\bibcite{jalote_concise_2008}{2}
\bibcite{martin_clean_2009}{3}
\bibcite{mccabe_complexity_1976}{4}
\bibcite{coghlan_pep_????}{5}
\bibcite{ludewig_software_2013}{6}
\bibcite{humphrey_discipline_1995}{7}
\bibcite{shneiderman_designing_1987}{8}
\bibcite{laskaris_30_2014}{9}
\bibcite{codecadamy_codecadamy_????}{10}
\bibcite{rostagno_ninja-ide_2013}{11}
\bibcite{cordasco_flake8_????}{12}
\bibcite{atlassian_bitbucket_????}{13}
\bibcite{tesch_openproject_2015}{14}
\bibcite{stahl_sophia_spreadsheet_????}{15}
\bibcite{stillman_zotero_????}{16}
\@writefile{toc}{\contentsline {section}{\numberline {4}Organization}{2}{section.4}}
